{
    "1": {
        "state": "ON",
        "brightness": 253,
        "color_mode": "color_temp",
        "color_temp": 250
    },
    "2": {
        "state": "ON",
        "brightness": 254,
        "color_temp": 294,
        "color_mode": "color_temp"
    },
    "3": {
        "state": "ON",
        "brightness": 112,
        "color_mode": "color_temp",
        "color_temp": 454
    },
    "0x000b57fffeae64fd": {
        "state": "ON",
        "color_mode": "xy",
        "color": {
            "x": 0.546,
            "y": 0.389
        },
        "linkquality": 156,
        "brightness": 254,
        "update": {
            "state": "available",
            "installed_version": 587753009,
            "latest_version": 587806257
        }
    },
    "0x90fd9ffffe03c771": {
        "state": "ON",
        "brightness": 253,
        "color_mode": "color_temp",
        "color_temp": 250,
        "linkquality": 156,
        "update": {
            "state": "idle",
            "installed_version": 587814449,
            "latest_version": 587814449
        }
    },
    "0x90fd9ffffe00d51f": {
        "brightness": 253,
        "state": "ON",
        "color_mode": "color_temp",
        "color_temp": 250,
        "linkquality": 196,
        "update": {
            "state": "available",
            "installed_version": 587757105,
            "latest_version": 587814449
        }
    },
    "0x000b57fffec07665": {
        "state": "ON",
        "linkquality": 152,
        "update": {
            "state": "idle",
            "installed_version": 587757105,
            "latest_version": 587757105
        },
        "brightness": 254,
        "color_temp": 294,
        "color_mode": "color_temp"
    },
    "0x000b57fffebe3736": {
        "state": "ON",
        "linkquality": 128,
        "update": {
            "state": "idle",
            "installed_version": 587757105,
            "latest_version": 587757105
        },
        "brightness": 254,
        "color_temp": 294,
        "color_mode": "color_temp"
    },
    "0x000b57fffeb730b0": {
        "state": "ON",
        "brightness": 254,
        "color_temp": 294,
        "color_mode": "color_temp",
        "update": {
            "state": "idle",
            "installed_version": 587757105,
            "latest_version": 587757105
        },
        "linkquality": 148
    },
    "0x000b57fffec3653c": {
        "state": "ON",
        "brightness": 254,
        "color_temp": 294,
        "color_mode": "color_temp",
        "update": {
            "state": "idle",
            "installed_version": 587757105,
            "latest_version": 587757105
        },
        "linkquality": 144
    },
    "0x000b57fffee45763": {
        "state": "ON",
        "brightness": 254,
        "color_temp": 294,
        "color_mode": "color_temp",
        "update": {
            "state": "idle",
            "installed_version": 587757105,
            "latest_version": 587757105
        },
        "linkquality": 148
    },
    "0x287681fffeee5523": {
        "temperature": 21,
        "humidity": 55,
        "pm25": 3,
        "voc_index": 239,
        "update": {
            "state": "available",
            "installed_version": 65552,
            "latest_version": 16777233
        },
        "linkquality": 188
    },
    "0x2c1165fffe73f637": {
        "local_temperature": 23.5,
        "current_heating_setpoint": 17,
        "heat": "OFF",
        "running_state": "idle",
        "linkquality": 148,
        "system_mode": "heat"
    },
    "0x0c4314fffe60ad74": {
        "energy": 229.66,
        "voltage": 242,
        "power": 0,
        "current": 0,
        "state": "ON",
        "linkquality": 192
    },
    "0x943469fffe86a484": {
        "state": "ON",
        "brightness": 191,
        "color_temp": 386,
        "color_mode": "color_temp",
        "color": {
            "x": 0.4691,
            "y": 0.4125,
            "hue": 31,
            "saturation": 84,
            "h": 31,
            "s": 84
        },
        "update": {
            "state": "idle",
            "installed_version": 268572245,
            "latest_version": 268572245
        }
    },
    "0x000b57fffebcdbc3": {
        "state": "ON",
        "brightness": 112,
        "color_mode": "color_temp",
        "color_temp": 454,
        "update": {
            "state": "idle",
            "installed_version": 587757105,
            "latest_version": 587757105
        }
    },
    "0x000b57fffedcd016": {
        "state": "ON",
        "brightness": 112,
        "color_mode": "color_temp",
        "color_temp": 454,
        "update": {
            "state": "idle",
            "installed_version": 587757105,
            "latest_version": 587757105
        }
    },
    "0x00158d0004607dea": {
        "contact": true,
        "voltage": 3015,
        "battery": 100,
        "device_temperature": 33,
        "power_outage_count": 3490,
        "trigger_count": 0
    },
    "0x000b57fffe91eebb": {
        "occupancy": false,
        "illuminance_above_threshold": false,
        "update": {
            "state": "available",
            "installed_version": 304170354,
            "latest_version": 604241925
        },
        "battery": 21,
        "linkquality": 172
    },
    "0xcc86ecfffe135ea0": {
        "state": "OFF",
        "brightness": 254,
        "linkquality": 176
    },
    "0x00158d0004607d9b": {
        "voltage": 3045,
        "battery": 100,
        "device_temperature": 18,
        "power_outage_count": 11088,
        "contact": true,
        "trigger_count": 0
    },
    "0x000b57fffeb78874": {
        "state": "ON",
        "update": {
            "state": "idle",
            "installed_version": 587757105,
            "latest_version": 587757105
        },
        "brightness": 254,
        "color_temp": 250,
        "color_mode": "color_temp"
    },
    "0x00158d0002f5d023": {
        "state": "ON",
        "brightness": 254,
        "update": {
            "state": "idle",
            "installed_version": 268768615,
            "latest_version": 268768615
        }
    }
}